{
  "openapi": "3.0.1",
  "info": {
    "title": "EdgeGateway",
    "version": "1.0"
  },
  "paths": {
    "/api/connectionConfiguration": {
      "get": {
        "tags": [
          "ConnectionConfiguration"
        ],
        "responses": {
          "200": {
            "description": "Success",
            "content": {
              "text/plain": {
                "schema": {
                  "type": "array",
                  "items": {
                    "$ref": "#/components/schemas/ConfiguredSiLAClient"
                  }
                }
              },
              "application/json": {
                "schema": {
                  "type": "array",
                  "items": {
                    "$ref": "#/components/schemas/ConfiguredSiLAClient"
                  }
                }
              },
              "text/json": {
                "schema": {
                  "type": "array",
                  "items": {
                    "$ref": "#/components/schemas/ConfiguredSiLAClient"
                  }
                }
              }
            }
          }
        }
      },
      "put": {
        "tags": [
          "ConnectionConfiguration"
        ],
        "parameters": [
          {
            "name": "persist",
            "in": "query",
            "schema": {
              "type": "boolean",
              "default": true
            }
          }
        ],
        "requestBody": {
          "content": {
            "application/json": {
              "schema": {
                "$ref": "#/components/schemas/ConfiguredSiLAClient"
              }
            },
            "text/json": {
              "schema": {
                "$ref": "#/components/schemas/ConfiguredSiLAClient"
              }
            },
            "application/*+json": {
              "schema": {
                "$ref": "#/components/schemas/ConfiguredSiLAClient"
              }
            }
          }
        },
        "responses": {
          "200": {
            "description": "Success"
          }
        }
      },
      "delete": {
        "tags": [
          "ConnectionConfiguration"
        ],
        "parameters": [
          {
            "name": "clientName",
            "in": "query",
            "schema": {
              "type": "string"
            }
          },
          {
            "name": "remove",
            "in": "query",
            "schema": {
              "type": "boolean",
              "default": true
            }
          }
        ],
        "responses": {
          "200": {
            "description": "Success"
          }
        }
      }
    },
    "/api/feature/{identifier}": {
      "get": {
        "tags": [
          "Feature"
        ],
        "parameters": [
          {
            "name": "identifier",
            "in": "path",
            "required": true,
            "schema": {
              "type": "string"
            }
          }
        ],
        "responses": {
          "200": {
            "description": "Success",
            "content": {
              "text/plain": {
                "schema": {
                  "$ref": "#/components/schemas/FeatureDesciption"
                }
              },
              "application/json": {
                "schema": {
                  "$ref": "#/components/schemas/FeatureDesciption"
                }
              },
              "text/json": {
                "schema": {
                  "$ref": "#/components/schemas/FeatureDesciption"
                }
              }
            }
          }
        }
      }
    },
    "/api/gateway": {
      "get": {
        "tags": [
          "Gateway"
        ],
        "responses": {
          "200": {
            "description": "Success",
            "content": {
              "text/plain": {
                "schema": {
                  "type": "array",
                  "items": {
                    "$ref": "#/components/schemas/ServerInfo"
                  }
                }
              },
              "application/json": {
                "schema": {
                  "type": "array",
                  "items": {
                    "$ref": "#/components/schemas/ServerInfo"
                  }
                }
              },
              "text/json": {
                "schema": {
                  "type": "array",
                  "items": {
                    "$ref": "#/components/schemas/ServerInfo"
                  }
                }
              }
            }
          }
        }
      },
      "post": {
        "tags": [
          "Gateway"
        ],
        "requestBody": {
          "content": {
            "application/json": {
              "schema": {
                "$ref": "#/components/schemas/DiscoverySpec"
              }
            },
            "text/json": {
              "schema": {
                "$ref": "#/components/schemas/DiscoverySpec"
              }
            },
            "application/*+json": {
              "schema": {
                "$ref": "#/components/schemas/DiscoverySpec"
              }
            }
          }
        },
        "responses": {
          "200": {
            "description": "Success"
          }
        }
      },
      "put": {
        "tags": [
          "Gateway"
        ],
        "requestBody": {
          "content": {
            "application/json": {
              "schema": {
                "$ref": "#/components/schemas/ServerSpec"
              }
            },
            "text/json": {
              "schema": {
                "$ref": "#/components/schemas/ServerSpec"
              }
            },
            "application/*+json": {
              "schema": {
                "$ref": "#/components/schemas/ServerSpec"
              }
            }
          }
        },
        "responses": {
          "200": {
            "description": "Success"
          }
        }
      }
    },
    "/api/gatewayFeatures": {
      "get": {
        "tags": [
          "GatewayFeature"
        ],
        "responses": {
          "200": {
            "description": "Success",
            "content": {
              "text/plain": {
                "schema": {
                  "type": "array",
                  "items": {
                    "type": "string"
                  }
                }
              },
              "application/json": {
                "schema": {
                  "type": "array",
                  "items": {
                    "type": "string"
                  }
                }
              },
              "text/json": {
                "schema": {
                  "type": "array",
                  "items": {
                    "type": "string"
                  }
                }
              }
            }
          }
        }
      },
      "put": {
        "tags": [
          "GatewayFeature"
        ],
        "parameters": [
          {
            "name": "identifier",
            "in": "query",
            "schema": {
              "type": "string"
            }
          }
        ],
        "responses": {
          "200": {
            "description": "Success"
          }
        }
      },
      "delete": {
        "tags": [
          "GatewayFeature"
        ],
        "parameters": [
          {
            "name": "identifier",
            "in": "query",
            "schema": {
              "type": "string"
            }
          }
        ],
        "responses": {
          "200": {
            "description": "Success"
          }
        }
      }
    },
    "/api/execution/{serverId}/{featureId}/observablecommands/{commandId}": {
      "post": {
        "tags": [
          "ObservableCommand"
        ],
        "parameters": [
          {
            "name": "serverId",
            "in": "path",
            "required": true,
            "schema": {
              "type": "string"
            }
          },
          {
            "name": "featureId",
            "in": "path",
            "required": true,
            "schema": {
              "type": "string"
            }
          },
          {
            "name": "commandId",
            "in": "path",
            "required": true,
            "schema": {
              "type": "string"
            }
          }
        ],
        "requestBody": {
          "content": {
            "application/json": {
              "schema": { }
            },
            "text/json": {
              "schema": { }
            },
            "application/*+json": {
              "schema": { }
            }
          }
        },
        "responses": {
          "200": {
            "description": "Success",
            "content": {
              "text/plain": {
                "schema": {
                  "$ref": "#/components/schemas/ObservableCommandExecution"
                }
              },
              "application/json": {
                "schema": {
                  "$ref": "#/components/schemas/ObservableCommandExecution"
                }
              },
              "text/json": {
                "schema": {
                  "$ref": "#/components/schemas/ObservableCommandExecution"
                }
              }
            }
          }
        }
      }
    },
    "/api/execution/{serverId}/{featureId}/properties/{propertyId}": {
      "post": {
        "tags": [
          "Property"
        ],
        "parameters": [
          {
            "name": "serverId",
            "in": "path",
            "required": true,
            "schema": {
              "type": "string"
            }
          },
          {
            "name": "featureId",
            "in": "path",
            "required": true,
            "schema": {
              "type": "string"
            }
          },
          {
            "name": "propertyId",
            "in": "path",
            "required": true,
            "schema": {
              "type": "string"
            }
          }
        ],
        "responses": {
          "200": {
            "description": "Success",
            "content": {
              "text/plain": {
                "schema": {
                  "$ref": "#/components/schemas/DynamicObjectProperty"
                }
              },
              "application/json": {
                "schema": {
                  "$ref": "#/components/schemas/DynamicObjectProperty"
                }
              },
              "text/json": {
                "schema": {
                  "$ref": "#/components/schemas/DynamicObjectProperty"
                }
              }
            }
          }
        }
      }
    },
    "/api/execution/{serverId}/{featureId}/commands/{commandId}": {
      "post": {
        "tags": [
          "UnobservableCommand"
        ],
        "parameters": [
          {
            "name": "serverId",
            "in": "path",
            "required": true,
            "schema": {
              "type": "string"
            }
          },
          {
            "name": "featureId",
            "in": "path",
            "required": true,
            "schema": {
              "type": "string"
            }
          },
          {
            "name": "commandId",
            "in": "path",
            "required": true,
            "schema": {
              "type": "string"
            }
          }
        ],
        "requestBody": {
          "content": {
            "application/json": {
              "schema": { }
            },
            "text/json": {
              "schema": { }
            },
            "application/*+json": {
              "schema": { }
            }
          }
        },
        "responses": {
          "200": {
            "description": "Success",
            "content": {
              "text/plain": {
                "schema": {
                  "$ref": "#/components/schemas/CommandResult"
                }
              },
              "application/json": {
                "schema": {
                  "$ref": "#/components/schemas/CommandResult"
                }
              },
              "text/json": {
                "schema": {
                  "$ref": "#/components/schemas/CommandResult"
                }
              }
            }
          }
        }
      }
    }
  },
  "components": {
    "schemas": {
      "CommandResult": {
        "type": "object",
        "properties": {
          "result": {
            "$ref": "#/components/schemas/DynamicObjectProperty"
          },
          "definedError": {
            "$ref": "#/components/schemas/DefinedError"
          },
          "undefinedError": {
            "$ref": "#/components/schemas/UndefinedError"
          }
        },
        "additionalProperties": false
      },
      "ConfiguredSiLAClient": {
        "type": "object",
        "properties": {
          "clientName": {
            "type": "string",
            "nullable": true
          },
          "siLAClientHost": {
            "type": "string",
            "nullable": true
          },
          "siLAClientPort": {
            "type": "integer",
            "format": "int64"
          }
        },
        "additionalProperties": false
      },
      "DataTypeType": {
        "type": "object",
        "properties": {
          "item": {
            "nullable": true
          }
        },
        "additionalProperties": false
      },
      "DefinedError": {
        "type": "object",
        "properties": {
          "identifier": {
            "type": "string",
            "nullable": true
          },
          "message": {
            "type": "string",
            "nullable": true
          }
        },
        "additionalProperties": false
      },
      "DiscoverySpec": {
        "type": "object",
        "properties": {
          "timeout": {
            "type": "integer",
            "format": "int32"
          }
        },
        "additionalProperties": false
      },
      "DynamicObjectProperty": {
        "type": "object",
        "properties": {
          "identifier": {
            "type": "string",
            "nullable": true,
            "readOnly": true
          },
          "displayName": {
            "type": "string",
            "nullable": true,
            "readOnly": true
          },
          "description": {
            "type": "string",
            "nullable": true,
            "readOnly": true
          },
          "type": {
            "$ref": "#/components/schemas/DataTypeType"
          },
          "value": {
            "nullable": true
          }
        },
        "additionalProperties": false
      },
      "FeatureCommand": {
        "type": "object",
        "properties": {
          "identifier": {
            "type": "string",
            "nullable": true
          },
          "displayName": {
            "type": "string",
            "nullable": true
          },
          "description": {
            "type": "string",
            "nullable": true
          },
          "observable": {
            "$ref": "#/components/schemas/FeatureCommandObservable"
          },
          "parameter": {
            "type": "array",
            "items": {
              "$ref": "#/components/schemas/SiLAElement"
            },
            "nullable": true
          },
          "response": {
            "type": "array",
            "items": {
              "$ref": "#/components/schemas/SiLAElement"
            },
            "nullable": true
          },
          "intermediateResponse": {
            "type": "array",
            "items": {
              "$ref": "#/components/schemas/SiLAElement"
            },
            "nullable": true
          },
          "definedExecutionErrors": {
            "type": "array",
            "items": {
              "type": "string"
            },
            "nullable": true
          }
        },
        "additionalProperties": false
      },
      "FeatureCommandObservable": {
        "enum": [
          0,
          1
        ],
        "type": "integer",
        "format": "int32"
      },
      "FeatureDefinedExecutionError": {
        "type": "object",
        "properties": {
          "identifier": {
            "type": "string",
            "nullable": true
          },
          "displayName": {
            "type": "string",
            "nullable": true
          },
          "description": {
            "type": "string",
            "nullable": true
          }
        },
        "additionalProperties": false
      },
      "FeatureDesciption": {
        "type": "object",
        "properties": {
          "identifier": {
            "type": "string",
            "nullable": true
          },
          "displayName": {
            "type": "string",
            "nullable": true
          },
          "version": {
            "type": "string",
            "nullable": true
          },
          "description": {
            "type": "string",
            "nullable": true
          },
          "category": {
            "type": "string",
            "nullable": true
          },
          "originator": {
            "type": "string",
            "nullable": true
          },
          "maturity": {
            "$ref": "#/components/schemas/FeatureMaturityLevel"
          },
          "commands": {
            "type": "array",
            "items": {
              "$ref": "#/components/schemas/FeatureCommand"
            },
            "nullable": true
          },
          "properties": {
            "type": "array",
            "items": {
              "$ref": "#/components/schemas/FeatureProperty"
            },
            "nullable": true
          },
          "dataTypes": {
            "type": "array",
            "items": {
              "$ref": "#/components/schemas/SiLAElement"
            },
            "nullable": true
          },
          "metadata": {
            "type": "array",
            "items": {
              "$ref": "#/components/schemas/FeatureMetadata"
            },
            "nullable": true
          },
          "definedExecutionErrors": {
            "type": "array",
            "items": {
              "$ref": "#/components/schemas/FeatureDefinedExecutionError"
            },
            "nullable": true
          }
        },
        "additionalProperties": false
      },
      "FeatureMaturityLevel": {
        "enum": [
          0,
          1,
          2
        ],
        "type": "integer",
        "format": "int32"
      },
      "FeatureMetadata": {
        "type": "object",
        "properties": {
          "identifier": {
            "type": "string",
            "nullable": true
          },
          "displayName": {
            "type": "string",
            "nullable": true
          },
          "description": {
            "type": "string",
            "nullable": true
          },
          "dataType": {
            "$ref": "#/components/schemas/DataTypeType"
          },
          "definedExecutionErrors": {
            "type": "array",
            "items": {
              "type": "string"
            },
            "nullable": true
          }
        },
        "additionalProperties": false
      },
      "FeatureProperty": {
        "type": "object",
        "properties": {
          "identifier": {
            "type": "string",
            "nullable": true
          },
          "displayName": {
            "type": "string",
            "nullable": true
          },
          "description": {
            "type": "string",
            "nullable": true
          },
          "observable": {
            "$ref": "#/components/schemas/FeaturePropertyObservable"
          },
          "dataType": {
            "$ref": "#/components/schemas/DataTypeType"
          },
          "definedExecutionErrors": {
            "type": "array",
            "items": {
              "type": "string"
            },
            "nullable": true
          }
        },
        "additionalProperties": false
      },
      "FeaturePropertyObservable": {
        "enum": [
          0,
          1
        ],
        "type": "integer",
        "format": "int32"
      },
      "ObservableCommandExecution": {
        "type": "object",
        "properties": {
          "executionUUID": {
            "type": "string",
            "nullable": true
          },
          "errorMessage": {
            "type": "string",
            "nullable": true
          }
        },
        "additionalProperties": false
      },
      "ServerInfo": {
        "type": "object",
        "properties": {
          "serveruuid": {
            "type": "string",
            "nullable": true
          },
          "serverName": {
            "type": "string",
            "nullable": true
          },
          "serverType": {
            "type": "string",
            "nullable": true
          },
          "description": {
            "type": "string",
            "nullable": true
          },
          "features": {
            "type": "array",
            "items": {
              "type": "string"
            },
            "nullable": true
          }
        },
        "additionalProperties": false
      },
      "ServerSpec": {
        "type": "object",
        "properties": {
          "host": {
            "type": "string",
            "nullable": true
          },
          "port": {
            "type": "integer",
            "format": "int32"
          }
        },
        "additionalProperties": false
      },
      "SiLAElement": {
        "type": "object",
        "properties": {
          "identifier": {
            "type": "string",
            "nullable": true
          },
          "displayName": {
            "type": "string",
            "nullable": true
          },
          "description": {
            "type": "string",
            "nullable": true
          },
          "dataType": {
            "$ref": "#/components/schemas/DataTypeType"
          }
        },
        "additionalProperties": false
      },
      "UndefinedError": {
        "type": "object",
        "properties": {
          "type": {
            "type": "string",
            "nullable": true
          },
          "message": {
            "type": "string",
            "nullable": true
          }
        },
        "additionalProperties": false
      }
    }
  }
}
